Sentiment-Analysis-Final.knit
…
Some data cleaning

scripts$Character.Name=str_trim(scripts$Character.Name)
scripts$Episode.Name=str_trim(scripts$Episode.Name)
scripts$Dialog=str_trim(scripts$Dialog)
scripts$Character.Name=str_to_title(scripts$Character.Name)
scripts$Episode.Name=str_to_title(scripts$Episode.Name)
scripts$Dialog =gsub("[\u2018\u2019\u201A\u201B\u2032\u2035]", "'", scripts$Dialog)
scripts$Character.Name = gsub("[\u2018\u2019\u201A\u201B\u2032\u2035]", "'", scripts$Character.Name)
count(scripts,Character.Name,sort = FALSE)

## # A tibble: 180 x 2
##    Character.Name                 n
##    <chr>                      <int>
##  1 A                              1
##  2 Aiber                         12
##  3 Aiber's Son                    1
##  4 Airport Traffic Controller     2
##  5 Aizawa                       280
##  6 Announcer                     11
##  7 Audience                       1
##  8 Auto Reply                     1
##  9 B                              1
## 10 Bodyguard                      1
## # ... with 170 more rows

count(scripts,Episode.Name,sort = FALSE)

## # A tibble: 37 x 2
##    Episode.Name      n
##    <chr>         <int>
##  1 1.28            103
##  2 Abduction       185
##  3 Ally            174
##  4 Assault         150
##  5 Confession      143
##  6 Confrontation   156
##  7 Dealings        116
##  8 Decision        151
##  9 Doubt           137
## 10 Encounter       123
## # ... with 27 more rows

count(scripts,Episode.No,sort = FALSE)

## # A tibble: 37 x 2
##    Episode.No     n
##         <dbl> <int>
##  1          1   127
##  2          2   156
##  3          3   116
##  4          4   124
##  5          5   139
##  6          6   160
##  7          7   155
##  8          8   155
##  9          9   123
## 10         10   137
## # ... with 27 more rows
…
